<?xml version="1.0" encoding="utf-8"?>
<!-- Generator: Adobe Illustrator 21.0.0, SVG Export Plug-In . SVG Version: 6.00 Build 0)  -->
<svg version="1.1" id="Layer_1" xmlns="http://www.w3.org/2000/svg" xmlns:xlink="http://www.w3.org/1999/xlink" x="0px" y="0px"
	 viewBox="0 0 887.4 264" style="enable-background:new 0 0 887.4 264;" xml:space="preserve" width="887" height="264">
<style type="text/css">
	.st0{fill:#FAF7EE;}
</style>
<path class="st0" d="M749.8,278.6c-24.7,3.4-49.1,7.6-74.3,9.9c-5.9-4.2-12.8-7.7-20.5-9.6c-7.1-1.8-14.1-1.2-21.1,0.7
	c-12.1,3.3-23.1,8.8-33.4,16.1c-6.2-6-12.9-11.1-20.8-14.5c-6-2.7-12.2-4.4-18.7-4c-6.6,0.4-13.1,1.7-19.3,4.1
	c-7.8,3-15.1,6.7-22.2,11.5c-4.3-4-8.6-8.1-13.9-11.1c-7.9-4.6-16.2-5.1-24.9-3.4c-15,2.9-30,6.1-45.2,8.5
	c-7.6,1.2-15.2,3.2-23.5,3.5c-5.2-3.6-11-7.3-17.6-9.8c-8.4-3.1-16.8-3.2-25.3-1.1c-10.5,2.6-20.3,7.1-29.3,13.1
	c-1.6,1.1-3.1,2.5-5.5,3.1c-4.2-4.7-9.4-8.5-15-11.9c-6.8-4.1-14.3-6.3-22.1-6.6c-6.6-0.3-13,1.7-19.3,3.8
	c-8.3,2.8-16.2,6.6-23.7,11.4c-2.1-1.7-4.1-3.1-5.9-4.8c-6.2-5.5-13.5-8.8-21.6-10.5c-3.7-0.7-7.3,0.5-10.8,1
	c-11.4,1.9-22.6,4.4-33.8,6.6c-1.8-0.7-0.3-2.6-2-3.8c-32.3,0.3-65.3-0.5-97.8,0.6c-2.3,3.8-1.4,8-3.8,11.4
	c-2.4-2.8-5.3-4.8-7.9-7.1c-5.8-5.1-12.8-7.4-20.2-8.8c-3.5-0.6-6.9,0.5-10.3,1.1c-9.7,1.6-19.4,3.7-29.3,5.7
	c0.6-5.2-0.2-10.5,1.7-15.5c2-1.7,4.7-1.6,7-2.3c7.5-2.3,13.8-6.4,19.5-11.5c7.6-6.8,13.9-14.7,20.2-22.6c3.6-4.5,7.6-8.8,12.5-12.1
	c4.4-2.9,9.3-3.4,14.3-2.7c5.8,0.8,8.5,5.1,10,10.4c0.7,2.5,1.4,5.1,2.1,7.6c2,6.9,9.1,11.1,15.5,12c8.8,1.2,16.6-0.7,24.1-5.1
	c5.8-3.3,9.7-8.5,13.8-13.5c4.8-5.9,9-12.3,13.9-18.2c5.6-6.7,12.9-11.3,21.8-11.3c8.2,0,16.1,2.1,22,8.6c2,2.2,4.2,4.3,6.3,6.4
	c4.9,4.8,10.9,7.1,17.7,8c5.3,0.7,10.1,0.6,14.9-1.7c4.1-1.9,7.2-4.8,9.7-8.4c3.6-5.3,6.5-11.1,9.3-17c4.3-9.1,8.2-18.5,14.4-26.6
	c5.8-7.5,13.5-11.1,22.7-11.4c11.1-0.4,21.5,2.8,31.6,7.3c9.2,4.2,17.9,9.5,26.6,14.6c8.1,4.8,16.5,8.5,25.8,9.8
	c8.8,1.2,17.5-0.3,25.6-4.2c7.8-3.7,14.3-9,20.6-14.7c3.6-3.3,7.2-6.3,11.2-9.1c3.1-2.1,6.6-3.2,10.1-3.8c7.7-1.2,13.2,2,16.3,9.2
	c1.7,3.9,3.3,7.9,4.5,12c2.3,7.6,7.3,12,15,12.2c7,0.2,13.3-2.3,17.4-8.6c2-3.1,4-6.1,6.1-9.1c2-2.8,3.9-5.8,7.2-7.4
	c8.5-4.1,16.3-4.4,21.6,5.3c1.2,2.2,2.3,4.4,3.1,6.8c4.6,12.2,7.9,24.8,12.1,37.2c2.9,8.6,6.2,17.2,12,24.4c6.5,8,14.7,11,25.1,9.5
	c14.9-2.1,28.4-8.4,42.5-12.9c7.2-2.3,14.4-3.8,21.9-3.6c7.8,0.3,15.4,1.8,22.6,4.8c8.2,3.3,15.8,7.6,22.9,12.9
	c12.7,9.5,26.2,18.1,40,25.9C747.7,276.3,749.2,276.7,749.8,278.6z"/>
<path class="st0" d="M692.2,0c0.1,10.6,0.9,21.2,1.3,31.8c0.3,10.2,1.2,20.5,1.8,30.7c0.1,1.6,0.7,3.2,1.1,5.3
	c12.9-0.1,25.4,2.6,38.1,6.4c3.6-7.3,7.2-14.3,10.7-21.5c5.2-10.9,10.3-21.9,15.5-32.8c0.3-0.6,0.4-1.2,0.7-1.9
	c0.9-0.2,1.4-0.1,0.9,1c-4.3,11.8-8.6,23.5-12.8,35.3c-2.6,7.3-5.2,14.6-8,22.2c11.5,5.7,23.3,11.1,33.2,20.2
	c15.1-12.3,28.8-26.2,43.5-38.9c0.5,0.4,0.5,0.8,0.1,1.2c-3.6,4.1-7.2,8.3-10.9,12.2c-9.2,9.8-18.1,19.9-26.9,30.2
	c10.6,8.8,18.4,19.6,25.5,31.3c8.5-2.5,16.7-5.8,25.1-8.8c8.4-3,16.8-6.1,25.1-9.1c1.1-0.5,1.2,0.1,1,0.9
	c-16.1,7.2-32,14.9-47.9,23.2c7.5,13.5,11,27.8,13.3,42.7c4.6,0.1,9,0.9,13.4,1c12.4,0.1,24.8,1.6,37.3,1.3
	c-0.3,2.4-2.1,1.1-3.3,1.3c-1.9,0.3-3.8-0.4-5.6,0.4c-13.6,0.3-27.1,0.9-41.1,2.3c0.6,16.1-0.1,31.7-4.9,47.1
	c8.2,5,17.5,7.8,26.3,13.2c-3,0.8-5,0.4-7.2-0.4c-6.6-2.6-13.3-4.9-20.3-7.5c-3.7,8.8-7,17.4-12,25.1c3.3,3.2,6.5,6.1,9.6,9
	c0.3,3.3-1,5.7-2,8.6c-4.6-3.8-9-7.2-13.2-10.8c-10.8-9.1-21.6-18.2-32.3-27.3c-10-8.5-19.9-17.1-29.9-25.6
	c-9.6-8.1-19.4-16.1-29-24.3c-7.7-6.5-15.3-13.2-23-19.8c-6.9-5.9-13.9-11.8-20.8-17.8c-1.8-1.5-3.7-2.1-6-1.7
	c-7.3,1.3-14.6,2.8-21.9,3.7c-7.2,0.9-14.4,2.1-21.5,3.2c-7.8,1.2-15.6,2.6-23.4,3.8c-1.5,0.2-3,0.2-4.5,0.2
	c-30.4-38.2-60.8-76.2-90.7-113.9c-2.2-0.5-3.3,0.5-4.4,1.1c-19,12.1-37.9,24.3-56.9,36.5c-26.1,16.7-52.2,33.4-78.3,50
	c-0.8,0.5-1.8,0.9-3.1,1.5c-13.9-11-28-22-42-33.1c-21.5,11-43.1,21.9-64.6,33c-21.7,11.1-43.3,22.4-65,33.6
	c-15.8,8.1-31.6,16.2-47.2,24.6c-3.3,1.8-6.1,1.7-9.3,0.3c-12.3-5.3-24.7-10.3-37-15.6c-2.4-1-4.1-0.9-6.4,0.5
	c-17,9.9-34.2,19.7-51.3,29.5c-6.6,3.8-13.2,7.6-19.8,11.4c-3.6-2-6.9-3.9-10.9-6.1c28.8-17.6,57.3-35,85.7-52.4
	c16.2,7.8,32.2,15.4,48.4,23.2c59.9-32.2,119.8-64.5,180-96.9c13,10.7,26.1,21.4,39.3,32.2c48.4-31.6,96.5-62.9,145.2-94.7
	c27.3,33,54.6,66,82.1,99.2c6.4-10.7,14.4-19.8,22.9-28.9c-4.3-5-8.5-10-12.7-14.8c-7.5-8.4-15.1-16.8-22.7-25.1c-0.3-0.9,0-1.4,1-1
	c2.1,1.1,3.5,3,5.2,4.6c11.4,10.7,22.8,21.2,35,31.6c10-8,20.8-14.5,32.8-19.6c-2-7.5-4.8-14.5-7.4-21.6
	c-4.2-11.8-8.7-23.5-13.1-35.2c-0.2-0.6-0.3-1.3-0.5-1.9c-0.5-1.1,0.1-1.2,0.9-1c6.8,15.3,14.1,30.3,21.7,45.2
	c1.8,3.5,3.3,7.2,5.9,10.9c12.3-3.3,24.7-6.4,37.4-6.5c0.5-0.8,1-1.3,1-1.7c-0.1-7.1,0.8-14.3,1.4-21.3c0.9-10.7,0.3-21.5,1.6-32.2
	c0.5-4.1,0.2-8.3,0.3-12.5"/>
<path class="st0" d="M864.2,185.9c1.2-1.7,3-0.6,4.5-0.9c1.5-0.3,3.3,0.8,4.5-0.9c4.8,0,9.5,0,14.3,0
	C879.7,184.5,872.1,186.7,864.2,185.9z"/>
<path class="st0" d="M818.3,59.1c0-0.4,0-0.8-0.1-1.2c2.1-2.6,4.3-5,7-6.8c0.3,0.2,0.4,0.4,0.3,0.7c-0.1,0.2-0.2,0.3-0.3,0.3
	C823.3,54.7,821,57.1,818.3,59.1z"/>
<path class="st0" d="M857.1,115.9c-0.1-0.6-0.5-0.8-1-0.9c2-1.8,4.6-2.3,7.1-2.9c1-0.4,1.2,0.1,1,1
	C861.8,113.9,859.5,114.9,857.1,115.9z"/>
<path class="st0" d="M762.3,19.1c-0.1-0.5-0.4-0.9-0.9-1c1.1-2.5,1.9-5.1,3.8-7.1l0,0C764.9,13.9,764.3,16.8,762.3,19.1z"/>
<path class="st0" d="M825.2,52c0-0.3,0-0.7,0-1c1-2,2.8-3.2,5-5.3C829.4,49.2,827.2,50.5,825.2,52z"/>
<path class="st0" d="M622.1,18.1c-0.6,0.1-0.8,0.5-0.9,1c-1.3-1.4-1.6-3.2-2-5c-0.4-1,0.1-1.2,0.9-1
	C620.8,14.7,621.5,16.4,622.1,18.1z"/>
<path class="st0" d="M864.2,112.9c-0.1-0.6-0.5-0.8-1-1c1.6-1.3,3.5-1.8,6.4-2.2C867.5,111.6,865.8,112.2,864.2,112.9z"/>
<path class="st0" d="M620.1,13c-0.6,0.1-0.8,0.5-0.9,1c-1.6-0.9-0.7-2.5-2-4C619.6,10.5,619.6,12,620.1,13z"/>
<path class="st0" d="M766.8,6c0.8,2.4-0.1,3.8-1.6,5l0,0C764.9,9.2,765.9,7.8,766.8,6"/>
<path class="st0" d="M600.4,128c18.3-23.5,41.6-39,71.3-44.1c24.9-4.3,49-1.5,71.7,9.5c16.6,8.1,30.7,19.6,41.7,34.7
	c-1.9,1.8-4.3,1.6-6.6,1.6c-57.2,0-114.4,0-171.6,0C604.7,129.6,602.2,129.8,600.4,128z"/>
<path class="st0" d="M790.9,136c1.8,2.5,3.6,5,4.6,7.9c-1.7,1.8-3.9,1.7-6.1,1.7c-37.8,0.1-75.5,0-113.3,0.1c-2,0-3.9-0.7-5.9-0.5
	c-1.8-1.7-3.6-3.3-5.5-5c-22.2,3.8-44.4,7.7-66.5,11.5c-3-3-5.7-5.6-7.7-9c0.9-2.4,2.2-4.7,4-6.6c2.2-1.6,4.6-1.6,7.2-1.6
	c60.5,0,121,0,181.6,0C785.9,134.4,788.5,134.7,790.9,136z"/>
<path class="st0" d="M790.9,136c-65.5,0-131,0-196.4,0c1.6-2.9,3.6-5.6,5.9-8c61.6,0,123.2,0,184.8,0
	C787.1,130.7,789,133.3,790.9,136z"/>
<path class="st0" d="M799.3,152c2,3.4,3.4,7.1,4,11c-2.4,2.2-5.3,1.6-8.1,1.6c-29.9,0.1-59.8,0-89.7,0c-4.2,0-8.3,0.1-12.4,0.6
	c-4.9-3.5-9.2-7.7-13.3-12c1.8-3.4,5.1-2.8,8-2.8c14-0.1,28,0,41.9,0c20.5,0,40.9,0,61.4,0C794,150.4,796.9,150,799.3,152z"/>
<path class="st0" d="M799.3,152c-37.6,0-75.2,0-112.8,0c-2.3,0-4.7-0.3-6.7,1.2c-3.7-2.1-6.2-5.7-9.7-8.1c1.3-2.1,3.3-1.1,5-1.1
	c23.3-0.1,46.6,0,69.9-0.1c16.8,0,33.6-0.1,50.4-0.1C797.2,146.4,798.6,149,799.3,152z"/>
<path class="st0" d="M693.1,165.2c0.6-2,2.1-2.3,3.9-2.2c3,0.1,6,0,9,0c32.4,0,64.9,0,97.3,0c1.4,3.2,2.5,6.5,2.7,10
	c-1.5,0.8-3.2,0.6-4.9,0.6c-31.2,0-62.4,0-93.7,0c-1.8,0-3.6-0.4-5.5-0.3C698.7,171,695.8,168.3,693.1,165.2z"/>
<path class="st0" d="M715.1,185.1c-2.1-1.5-4.1-3.2-5.8-5.2c0-2.5,1.9-2.9,3.7-3.2c1.5-0.3,3-0.3,4.5-0.3c27.5,0,55,0,82.5,0
	c2.4,0,5.1-0.4,7.1,1.6c0.1,1,0.2,1.9,0.3,2.9c0.6,1.4,0.7,2.9-0.2,4.2c-2,1.6-4.4,1.4-6.7,1.4c-26,0-52.1,0-78.1,0
	C719.8,186.6,717.3,186.3,715.1,185.1z"/>
<path class="st0" d="M807,178c-30.7,0-61.4,0-92.1,0c-2,0-4.5-0.9-5.6,1.9c-2.8-1.8-4.9-4.2-7.2-6.5c0.7-2,2.5-1.3,3.8-1.3
	c7.2-0.1,14.3,0,21.5,0c24.3,0,48.6,0,72.9,0c2,0,4-0.4,5.8,1C806.4,174.6,807.5,176.2,807,178z"/>
<path class="st0" d="M808.4,192.8c1,3.8,1.1,7.5-0.1,11.3c-1.4,0.5-2.9,0.5-4.4,0.5c-20.7-0.1-41.5,0-62.2,0c-1.8,0-3.6-0.2-5.4-0.6
	c-3.2-2.5-6.4-5-9-8c2.2-2.1,5-1.6,7.6-1.6c21.3-0.1,42.6,0,63.8,0C802,194.4,805.3,194.2,808.4,192.8z"/>
<path class="st0" d="M808.4,192.8c-0.1,1-0.2,1.9-0.4,3.2c-27.1,0-53.9,0-80.7,0c-2.4-1.7-4.5-3.6-6.3-5.9c1.8-2,4.2-1.7,6.5-1.7
	c24.7-0.1,49.5,0,74.2,0c2.3,0,4.7-0.1,6.6,1.6C808.3,190.9,808.3,191.9,808.4,192.8z"/>
<path class="st0" d="M808.2,190c-27.4,0-54.9,0-82.3,0c-1.7,0-3.3,0.1-5,0.2c-2.4-1.1-4.1-3.1-5.8-5.1c30.5,0,61,0,91.2,0
	c1.3-1.5,0.7-2.9,1-4.2C808.9,183.8,808,187,808.2,190z"/>
<path class="st0" d="M736.2,204c0.6-1.5,1.9-1,3-1c22,0,44.1,0,66.1,0c1.1,0,2.4-0.4,3,1.1c0.1,1.6,0.2,3.3-0.2,4.9
	c-2.1,1.6-4.6,1.6-7.1,1.6c-17.1,0-34.2,0-51.3,0c-2.7,0-5.3-0.4-7.7-1.5C739.8,207.7,737.7,206.2,736.2,204z"/>
<path class="st0" d="M741.9,209.1c22.1,0,44.1-0.1,66.2-0.1c-1.3,1.9-0.4,4-0.8,6c-1.8,1.6-3.9,1.6-6.1,1.6c-15.2,0.1-30.4,0-45.7,0
	c-2.5,0-4.9-0.3-7.2-1.6C745.9,213.4,743.8,211.3,741.9,209.1z"/>
<path class="st0" d="M802.2,236c-1,4.6-3,8.7-5,12.9c-1,2.2-2,4.5-4,6.7c-7.7-6.8-15.4-13.3-22.4-20.5c10.1-3.3,20.3-2,30.6-0.8
	C802.1,234.5,802.3,235.3,802.2,236z"/>
<path class="st0" d="M748.3,215c19.6,0,39.3,0,58.9,0c0.1,2.1,0.2,4.1-1,6c-1.9,1.7-4.3,1.6-6.6,1.6c-12.4,0-24.9,0-37.3,0
	c-2.5,0-5-0.3-7.2-1.6C752.7,219.2,750.3,217.3,748.3,215z"/>
<path class="st0" d="M755.1,221.1c17,0,34.1,0,51.1-0.1c0.1,1.8,0,3.5-1.1,5c-1.6,1.5-3.6,1.5-5.6,1.5c-10.8,0-21.6,0-32.4,0
	c-2.2,0-4.2-0.7-6.3-1.4C758.4,225,756.8,223,755.1,221.1z"/>
<path class="st0" d="M802.2,236c-0.4-0.9-1.2-1-2-1c-9.8,0.1-19.6,0.1-29.4,0.2c-2.3-1.2-4-3.1-5.7-5c0.2-2.3,2.1-2.5,3.6-2.5
	c10.8-0.2,21.7-0.2,32.5,0c1.2,0,2.3,0.5,3.1,1.4C804.2,231.5,803.5,233.8,802.2,236z"/>
<path class="st0" d="M804.4,229c-11.8,0-23.5-0.1-35.3,0c-1.3,0-3.1-0.8-3.9,1.1c-1.7-1.1-3.1-2.4-4.3-4c14.8,0,29.6-0.1,44.4-0.1
	C805.2,227.1,805.4,228.2,804.4,229z"/>
</svg>
